2023-04-19 10:45:26,343 — db.tracker_store_connection — INFO - 128546 — load_config:42 — Bot Environment is :dev
======Start======

2023-04-19 10:45:26,354 — db.tracker_store_connection — INFO - 128546 — mongo_get_all_collection_data:88 — mongo url : http://172.16.22.5:8082/find
2023-04-19 10:45:26,355 — db.tracker_store_connection — INFO - 128546 — mongo_get_all_collection_data:91 — 
col : customer_details
 DB: 99_acres
2023-04-19 10:45:26,420 — db.tracker_store_connection — INFO - 128546 — mongo_get_all_collection_data:104 — {"message":"Fetched successfully","result":[{"STAGE_CODE":"","call_comp_flag":"","call_status":"","call_uid":"1681803148853105151","capture_date":1675485499000,"captured_date_time":"2023-02-04 04:38:19","city":"Banglore South","config":[{"AREA":350.6,"BHK":"3","LABEL":"3 BHK Apartment","PRICE":"57400000"},{"AREA":400.6,"BHK":"4","LABEL":"4 BHK Apartment","PRICE":"66900000"},{"AREA":550.6,"BHK":"5","LABEL":"5 BHK Apartment","PRICE":"85500000"}],"duplicate":1,"email":"ravi@gmail.com","flow_id":"99_acres_eng","full_name":"ravi","input_date":"18/04/23","inserted_date_time":"2023-04-18 07:32:28.875000","language":"english","last_triggered_date":"","locality":"j p nagar","main_ans_seq":0,"main_no_ans_seq":0,"main_seq_no":0,"min_area":"350","min_budget":"57400000","min_config":"3","mod_input_date":"18/04/23","name":"ravi","next_trigger_date":"2023-04-18 09:32:28.875000","omni_id":12345,"phone":"07041295305","phone_number":7041295305,"platform":"media","possession_date":1661506535,"possession_status":"UNDER_CONSTRUCTION","project_city":"Banglore South","project_name":"Godrej Urban Park","project_status":"UNDER_CONSTRUCTION","res_com":"R","responseId":0,"source":"99 acres","stage":"","sts":"","timeline":"26 August 2022","trigger_call":true,"trigger_days":2},{"STAGE_CODE":"","call_comp_flag":"","call_status":"","call_uid":"1681803083343177954","capture_date":1675485499000,"captured_date_time":"2023-02-04 04:38:19","city":"Banglore South","config":[{"AREA":350.6,"BHK":"3","LABEL":"3 BHK Apartment","PRICE":"57400000"},{"AREA":400.6,"BHK":"4","LABEL":"4 BHK Apartment","PRICE":"66900000"},{"AREA":550.6,"BHK":"5","LABEL":"5 BHK Apartment","PRICE":"85500000"}],"duplicate":2,"email":"ravi@gmail.com","flow_id":"99_acres_eng","full_name":"ravi","input_date":"18/02/23","inserted_date_time":"2023-04-18 07:31:23.363000","language":"english","last_triggered_date":"","locality":"j p nagar","main_ans_seq":0,"main_no_ans_seq":0,"main_seq_no":0,"min_area":"350","min_budget":"57400000","min_config":"3","mod_input_date":"18/04/23","name":"ravi","next_trigger_date":"2023-04-18 09:31:23.363000","omni_id":12345,"phone":"07041295305","phone_number":7041295305,"platform":"media","possession_date":1661506535,"possession_status":"UNDER_CONSTRUCTION","project_city":"Banglore South","project_name":"Godrej Urban Park","project_status":"UNDER_CONSTRUCTION","res_com":"R","responseId":0,"source":"99 acres","stage":"","sts":"","timeline":"26 August 2022","trigger_call":true,"trigger_days":2},{"STAGE_CODE":"","call_comp_flag":"","call_status":"","call_uid":"1681803014780636607","capture_date":1675485499000,"captured_date_time":"2023-02-04 04:38:19","city":"Banglore South","config":[{"AREA":350.6,"BHK":"3","LABEL":"3 BHK Apartment","PRICE":"57400000"},{"AREA":400.6,"BHK":"4","LABEL":"4 BHK Apartment","PRICE":"66900000"},{"AREA":550.6,"BHK":"5","LABEL":"5 BHK Apartment","PRICE":"85500000"}],"duplicate":1,"email":"ravi@gmail.com","flow_id":"99_acres_eng","full_name":"ravi","input_date":"18/02/23","inserted_date_time":"2023-04-18 07:30:14.802000","language":"english","last_triggered_date":"","locality":"j p nagar","main_ans_seq":0,"main_no_ans_seq":0,"main_seq_no":0,"min_area":"350","min_budget":"57400000","min_config":"3","mod_input_date":"18/04/23","name":"ravi","next_trigger_date":"2023-04-18 09:30:14.802000","omni_id":12345,"phone":"07041295305","phone_number":7041295305,"platform":"media","possession_date":1661506535,"possession_status":"UNDER_CONSTRUCTION","project_city":"Banglore South","project_name":"Godrej Urban Park","project_status":"UNDER_CONSTRUCTION","res_com":"R","responseId":0,"source":"99 acres","stage":"","sts":"","timeline":"26 August 2022","trigger_call":true,"trigger_days":2},{"STAGE_CODE":"","call_comp_flag":"","call_status":"","call_uid":"1681802882097375520","capture_date":1675485499000,"captured_date_time":"2023-02-04 04:38:19","city":"Banglore South","config":[{"AREA":350.6,"BHK":"3","LABEL":"3 BHK Apartment","PRICE":"57400000"},{"AREA":400.6,"BHK":"4","LABEL":"4 BHK Apartment","PRICE":"66900000"},{"AREA":550.6,"BHK":"5","LABEL":"5 BHK Apartment","PRICE":"85500000"}],"duplicate":3,"email":"ravi@gmail.com","flow_id":"99_acres_eng","full_name":"ravi","input_date":"18/03/23","inserted_date_time":"2023-04-18 07:28:02.129000","language":"english","last_triggered_date":"","locality":"j p nagar","main_ans_seq":0,"main_no_ans_seq":0,"main_seq_no":0,"min_area":"350","min_budget":"57400000","min_config":"3","mod_input_date":"18/04/23","name":"ravi","next_trigger_date":"2023-04-18 09:28:02.129000","omni_id":12345,"phone":"07041295305","phone_number":7041295305,"platform":"media","possession_date":1661506535,"possession_status":"UNDER_CONSTRUCTION","project_city":"Banglore South","project_name":"Godrej Urban Park","project_status":"UNDER_CONSTRUCTION","res_com":"R","responseId":0,"source":"99 acres","stage":"","sts":"","timeline":"26 August 2022","trigger_call":true,"trigger_days":2},{"STAGE_CODE":"","call_comp_flag":"","call_status":"","call_uid":"1681802863571584817","capture_date":1675485499000,"captured_date_time":"2023-02-04 04:38:19","city":"Banglore South","config":[{"AREA":350.6,"BHK":"3","LABEL":"3 BHK Apartment","PRICE":"57400000"},{"AREA":400.6,"BHK":"4","LABEL":"4 BHK Apartment","PRICE":"66900000"},{"AREA":550.6,"BHK":"5","LABEL":"5 BHK Apartment","PRICE":"85500000"}],"duplicate":2,"email":"ravi@gmail.com","flow_id":"99_acres_eng","full_name":"ravi","input_date":"18/03/23","inserted_date_time":"2023-04-18 07:27:43.608000","language":"english","last_triggered_date":"","locality":"j p nagar","main_ans_seq":0,"main_no_ans_seq":0,"main_seq_no":0,"min_area":"350","min_budget":"57400000","min_config":"3","mod_input_date":"18/04/23","name":"ravi","next_trigger_date":"2023-04-18 09:27:43.608000","omni_id":12345,"phone":"07041295305","phone_number":7041295305,"platform":"media","possession_date":1661506535,"possession_status":"UNDER_CONSTRUCTION","project_city":"Banglore South","project_name":"Godrej Urban Park","project_status":"UNDER_CONSTRUCTION","res_com":"R","responseId":0,"source":"99 acres","stage":"","sts":"","timeline":"26 August 2022","trigger_call":true,"trigger_days":2},{"STAGE_CODE":"","call_comp_flag":"","call_status":"","call_uid":"1681802846849213151","capture_date":1675485499000,"captured_date_time":"2023-02-04 04:38:19","city":"Banglore South","config":[{"AREA":350.6,"BHK":"3","LABEL":"3 BHK Apartment","PRICE":"57400000"},{"AREA":400.6,"BHK":"4","LABEL":"4 BHK Apartment","PRICE":"66900000"},{"AREA":550.6,"BHK":"5","LABEL":"5 BHK Apartment","PRICE":"85500000"}],"duplicate":1,"email":"ravi@gmail.com","flow_id":"99_acres_eng","full_name":"ravi","input_date":"18/03/23","inserted_date_time":"2023-04-18 07:27:26.869000","language":"english","last_triggered_date":"","locality":"j p nagar","main_ans_seq":0,"main_no_ans_seq":0,"main_seq_no":0,"min_area":"350","min_budget":"57400000","min_config":"3","mod_input_date":"18/04/23","name":"ravi","next_trigger_date":"2023-04-18 09:27:26.869000","omni_id":12345,"phone":"07041295305","phone_number":7041295305,"platform":"media","possession_date":1661506535,"possession_status":"UNDER_CONSTRUCTION","project_city":"Banglore South","project_name":"Godrej Urban Park","project_status":"UNDER_CONSTRUCTION","res_com":"R","responseId":0,"source":"99 acres","stage":"","sts":"","timeline":"26 August 2022","trigger_call":true,"trigger_days":2},{"STAGE_CODE":"RNR","call_comp_flag":"no","call_sequence_mapping":{"18-04-2023":{"answered":0,"calls_triggered":3,"max_trigger":3,"not_answered":3}},"call_status":"NO ANSWER","call_uid":"1681472493038033534","capture_date":1675485499000,"captured_date_time":"2023-02-04 04:38:19","city":"Banglore South","config":[{"AREA":350.6,"BHK":"3","LABEL":"3 BHK Apartment","PRICE":"57400000"},{"AREA":400.6,"BHK":"4","LABEL":"4 BHK Apartment","PRICE":"66900000"},{"AREA":550.6,"BHK":"5","LABEL":"5 BHK Apartment","PRICE":"85500000"}],"conversation_log":[],"customerCRTId":"1681803148853105151","duplicate":1,"email":"ravi@gmail.com","faq_intent_list":[],"flow_id":"99_acres_eng","full_name":"ravi","initial_message_key":"initial_message_3_diya","input_date":"01/03/23","inserted_date_time":"2023-04-14 11:41:33","language":"english","last_triggered_date":"2023-04-18 07:33:59.400000","locality":"j p nagar","main_ans_seq":0,"main_no_ans_seq":3,"main_seq_no":3,"min_area":"350","min_budget":"57400000","min_config":"3","mod_input_date":"14/04/23","name":"ravi","next_trigger_date":"2023-04-19 01:30:59.408000","omni_id":12345,"phone":"07041295305","phone_number":7041295305,"platform":"media","possession_date":1661506535,"possession_status":"UNDER_CONSTRUCTION","project_city":"Banglore South","project_name":"Godrej Urban Park","project_status":"UNDER_CONSTRUCTION","res_com":"R","responseId":0,"setupTime":0,"source":"99 acres","stage":"","sts":"NO ANSWER","temp_type":"aud","timeline":"26 August 2022","trigger_call":false,"trigger_days":3}],"status":200}

Response : {'message': 'Fetched successfully', 'result': [{'STAGE_CODE': '', 'call_comp_flag': '', 'call_status': '', 'call_uid': '1681803148853105151', 'capture_date': 1675485499000, 'captured_date_time': '2023-02-04 04:38:19', 'city': 'Banglore South', 'config': [{'AREA': 350.6, 'BHK': '3', 'LABEL': '3 BHK Apartment', 'PRICE': '57400000'}, {'AREA': 400.6, 'BHK': '4', 'LABEL': '4 BHK Apartment', 'PRICE': '66900000'}, {'AREA': 550.6, 'BHK': '5', 'LABEL': '5 BHK Apartment', 'PRICE': '85500000'}], 'duplicate': 1, 'email': 'ravi@gmail.com', 'flow_id': '99_acres_eng', 'full_name': 'ravi', 'input_date': '18/04/23', 'inserted_date_time': '2023-04-18 07:32:28.875000', 'language': 'english', 'last_triggered_date': '', 'locality': 'j p nagar', 'main_ans_seq': 0, 'main_no_ans_seq': 0, 'main_seq_no': 0, 'min_area': '350', 'min_budget': '57400000', 'min_config': '3', 'mod_input_date': '18/04/23', 'name': 'ravi', 'next_trigger_date': '2023-04-18 09:32:28.875000', 'omni_id': 12345, 'phone': '07041295305', 'phone_number': 7041295305, 'platform': 'media', 'possession_date': 1661506535, 'possession_status': 'UNDER_CONSTRUCTION', 'project_city': 'Banglore South', 'project_name': 'Godrej Urban Park', 'project_status': 'UNDER_CONSTRUCTION', 'res_com': 'R', 'responseId': 0, 'source': '99 acres', 'stage': '', 'sts': '', 'timeline': '26 August 2022', 'trigger_call': True, 'trigger_days': 2}, {'STAGE_CODE': '', 'call_comp_flag': '', 'call_status': '', 'call_uid': '1681803083343177954', 'capture_date': 1675485499000, 'captured_date_time': '2023-02-04 04:38:19', 'city': 'Banglore South', 'config': [{'AREA': 350.6, 'BHK': '3', 'LABEL': '3 BHK Apartment', 'PRICE': '57400000'}, {'AREA': 400.6, 'BHK': '4', 'LABEL': '4 BHK Apartment', 'PRICE': '66900000'}, {'AREA': 550.6, 'BHK': '5', 'LABEL': '5 BHK Apartment', 'PRICE': '85500000'}], 'duplicate': 2, 'email': 'ravi@gmail.com', 'flow_id': '99_acres_eng', 'full_name': 'ravi', 'input_date': '18/02/23', 'inserted_date_time': '2023-04-18 07:31:23.363000', 'language': 'english', 'last_triggered_date': '', 'locality': 'j p nagar', 'main_ans_seq': 0, 'main_no_ans_seq': 0, 'main_seq_no': 0, 'min_area': '350', 'min_budget': '57400000', 'min_config': '3', 'mod_input_date': '18/04/23', 'name': 'ravi', 'next_trigger_date': '2023-04-18 09:31:23.363000', 'omni_id': 12345, 'phone': '07041295305', 'phone_number': 7041295305, 'platform': 'media', 'possession_date': 1661506535, 'possession_status': 'UNDER_CONSTRUCTION', 'project_city': 'Banglore South', 'project_name': 'Godrej Urban Park', 'project_status': 'UNDER_CONSTRUCTION', 'res_com': 'R', 'responseId': 0, 'source': '99 acres', 'stage': '', 'sts': '', 'timeline': '26 August 2022', 'trigger_call': True, 'trigger_days': 2}, {'STAGE_CODE': '', 'call_comp_flag': '', 'call_status': '', 'call_uid': '1681803014780636607', 'capture_date': 1675485499000, 'captured_date_time': '2023-02-04 04:38:19', 'city': 'Banglore South', 'config': [{'AREA': 350.6, 'BHK': '3', 'LABEL': '3 BHK Apartment', 'PRICE': '57400000'}, {'AREA': 400.6, 'BHK': '4', 'LABEL': '4 BHK Apartment', 'PRICE': '66900000'}, {'AREA': 550.6, 'BHK': '5', 'LABEL': '5 BHK Apartment', 'PRICE': '85500000'}], 'duplicate': 1, 'email': 'ravi@gmail.com', 'flow_id': '99_acres_eng', 'full_name': 'ravi', 'input_date': '18/02/23', 'inserted_date_time': '2023-04-18 07:30:14.802000', 'language': 'english', 'last_triggered_date': '', 'locality': 'j p nagar', 'main_ans_seq': 0, 'main_no_ans_seq': 0, 'main_seq_no': 0, 'min_area': '350', 'min_budget': '57400000', 'min_config': '3', 'mod_input_date': '18/04/23', 'name': 'ravi', 'next_trigger_date': '2023-04-18 09:30:14.802000', 'omni_id': 12345, 'phone': '07041295305', 'phone_number': 7041295305, 'platform': 'media', 'possession_date': 1661506535, 'possession_status': 'UNDER_CONSTRUCTION', 'project_city': 'Banglore South', 'project_name': 'Godrej Urban Park', 'project_status': 'UNDER_CONSTRUCTION', 'res_com': 'R', 'responseId': 0, 'source': '99 acres', 'stage': '', 'sts': '', 'timeline': '26 August 2022', 'trigger_call': True, 'trigger_days': 2}, {'STAGE_CODE': '', 'call_comp_flag': '', 'call_status': '', 'call_uid': '1681802882097375520', 'capture_date': 1675485499000, 'captured_date_time': '2023-02-04 04:38:19', 'city': 'Banglore South', 'config': [{'AREA': 350.6, 'BHK': '3', 'LABEL': '3 BHK Apartment', 'PRICE': '57400000'}, {'AREA': 400.6, 'BHK': '4', 'LABEL': '4 BHK Apartment', 'PRICE': '66900000'}, {'AREA': 550.6, 'BHK': '5', 'LABEL': '5 BHK Apartment', 'PRICE': '85500000'}], 'duplicate': 3, 'email': 'ravi@gmail.com', 'flow_id': '99_acres_eng', 'full_name': 'ravi', 'input_date': '18/03/23', 'inserted_date_time': '2023-04-18 07:28:02.129000', 'language': 'english', 'last_triggered_date': '', 'locality': 'j p nagar', 'main_ans_seq': 0, 'main_no_ans_seq': 0, 'main_seq_no': 0, 'min_area': '350', 'min_budget': '57400000', 'min_config': '3', 'mod_input_date': '18/04/23', 'name': 'ravi', 'next_trigger_date': '2023-04-18 09:28:02.129000', 'omni_id': 12345, 'phone': '07041295305', 'phone_number': 7041295305, 'platform': 'media', 'possession_date': 1661506535, 'possession_status': 'UNDER_CONSTRUCTION', 'project_city': 'Banglore South', 'project_name': 'Godrej Urban Park', 'project_status': 'UNDER_CONSTRUCTION', 'res_com': 'R', 'responseId': 0, 'source': '99 acres', 'stage': '', 'sts': '', 'timeline': '26 August 2022', 'trigger_call': True, 'trigger_days': 2}, {'STAGE_CODE': '', 'call_comp_flag': '', 'call_status': '', 'call_uid': '1681802863571584817', 'capture_date': 1675485499000, 'captured_date_time': '2023-02-04 04:38:19', 'city': 'Banglore South', 'config': [{'AREA': 350.6, 'BHK': '3', 'LABEL': '3 BHK Apartment', 'PRICE': '57400000'}, {'AREA': 400.6, 'BHK': '4', 'LABEL': '4 BHK Apartment', 'PRICE': '66900000'}, {'AREA': 550.6, 'BHK': '5', 'LABEL': '5 BHK Apartment', 'PRICE': '85500000'}], 'duplicate': 2, 'email': 'ravi@gmail.com', 'flow_id': '99_acres_eng', 'full_name': 'ravi', 'input_date': '18/03/23', 'inserted_date_time': '2023-04-18 07:27:43.608000', 'language': 'english', 'last_triggered_date': '', 'locality': 'j p nagar', 'main_ans_seq': 0, 'main_no_ans_seq': 0, 'main_seq_no': 0, 'min_area': '350', 'min_budget': '57400000', 'min_config': '3', 'mod_input_date': '18/04/23', 'name': 'ravi', 'next_trigger_date': '2023-04-18 09:27:43.608000', 'omni_id': 12345, 'phone': '07041295305', 'phone_number': 7041295305, 'platform': 'media', 'possession_date': 1661506535, 'possession_status': 'UNDER_CONSTRUCTION', 'project_city': 'Banglore South', 'project_name': 'Godrej Urban Park', 'project_status': 'UNDER_CONSTRUCTION', 'res_com': 'R', 'responseId': 0, 'source': '99 acres', 'stage': '', 'sts': '', 'timeline': '26 August 2022', 'trigger_call': True, 'trigger_days': 2}, {'STAGE_CODE': '', 'call_comp_flag': '', 'call_status': '', 'call_uid': '1681802846849213151', 'capture_date': 1675485499000, 'captured_date_time': '2023-02-04 04:38:19', 'city': 'Banglore South', 'config': [{'AREA': 350.6, 'BHK': '3', 'LABEL': '3 BHK Apartment', 'PRICE': '57400000'}, {'AREA': 400.6, 'BHK': '4', 'LABEL': '4 BHK Apartment', 'PRICE': '66900000'}, {'AREA': 550.6, 'BHK': '5', 'LABEL': '5 BHK Apartment', 'PRICE': '85500000'}], 'duplicate': 1, 'email': 'ravi@gmail.com', 'flow_id': '99_acres_eng', 'full_name': 'ravi', 'input_date': '18/03/23', 'inserted_date_time': '2023-04-18 07:27:26.869000', 'language': 'english', 'last_triggered_date': '', 'locality': 'j p nagar', 'main_ans_seq': 0, 'main_no_ans_seq': 0, 'main_seq_no': 0, 'min_area': '350', 'min_budget': '57400000', 'min_config': '3', 'mod_input_date': '18/04/23', 'name': 'ravi', 'next_trigger_date': '2023-04-18 09:27:26.869000', 'omni_id': 12345, 'phone': '07041295305', 'phone_number': 7041295305, 'platform': 'media', 'possession_date': 1661506535, 'possession_status': 'UNDER_CONSTRUCTION', 'project_city': 'Banglore South', 'project_name': 'Godrej Urban Park', 'project_status': 'UNDER_CONSTRUCTION', 'res_com': 'R', 'responseId': 0, 'source': '99 acres', 'stage': '', 'sts': '', 'timeline': '26 August 2022', 'trigger_call': True, 'trigger_days': 2}, {'STAGE_CODE': 'RNR', 'call_comp_flag': 'no', 'call_sequence_mapping': {'18-04-2023': {'answered': 0, 'calls_triggered': 3, 'max_trigger': 3, 'not_answered': 3}}, 'call_status': 'NO ANSWER', 'call_uid': '1681472493038033534', 'capture_date': 1675485499000, 'captured_date_time': '2023-02-04 04:38:19', 'city': 'Banglore South', 'config': [{'AREA': 350.6, 'BHK': '3', 'LABEL': '3 BHK Apartment', 'PRICE': '57400000'}, {'AREA': 400.6, 'BHK': '4', 'LABEL': '4 BHK Apartment', 'PRICE': '66900000'}, {'AREA': 550.6, 'BHK': '5', 'LABEL': '5 BHK Apartment', 'PRICE': '85500000'}], 'conversation_log': [], 'customerCRTId': '1681803148853105151', 'duplicate': 1, 'email': 'ravi@gmail.com', 'faq_intent_list': [], 'flow_id': '99_acres_eng', 'full_name': 'ravi', 'initial_message_key': 'initial_message_3_diya', 'input_date': '01/03/23', 'inserted_date_time': '2023-04-14 11:41:33', 'language': 'english', 'last_triggered_date': '2023-04-18 07:33:59.400000', 'locality': 'j p nagar', 'main_ans_seq': 0, 'main_no_ans_seq': 3, 'main_seq_no': 3, 'min_area': '350', 'min_budget': '57400000', 'min_config': '3', 'mod_input_date': '14/04/23', 'name': 'ravi', 'next_trigger_date': '2023-04-19 01:30:59.408000', 'omni_id': 12345, 'phone': '07041295305', 'phone_number': 7041295305, 'platform': 'media', 'possession_date': 1661506535, 'possession_status': 'UNDER_CONSTRUCTION', 'project_city': 'Banglore South', 'project_name': 'Godrej Urban Park', 'project_status': 'UNDER_CONSTRUCTION', 'res_com': 'R', 'responseId': 0, 'setupTime': 0, 'source': '99 acres', 'stage': '', 'sts': 'NO ANSWER', 'temp_type': 'aud', 'timeline': '26 August 2022', 'trigger_call': False, 'trigger_days': 3}], 'status': 200}


------------------------ 18/04/23 - 1 -----------------
last 15 dates :  ['18/04/23', '17/04/23', '16/04/23', '15/04/23', '14/04/23', '13/04/23', '12/04/23', '11/04/23', '10/04/23', '09/04/23', '08/04/23', '07/04/23', '06/04/23', '05/04/23', '04/04/23']
[ 18/04/23	]
count : 1 <====> duplicate : 1
result is : True for 18/04/23


------------------------ 18/02/23 - 2 -----------------
last 15 dates :  ['18/02/23', '17/02/23', '16/02/23', '15/02/23', '14/02/23', '13/02/23', '12/02/23', '11/02/23', '10/02/23', '09/02/23', '08/02/23', '07/02/23', '06/02/23', '05/02/23', '04/02/23']
[ 18/02/23	18/02/23	]
count : 2 <====> duplicate : 2
result is : True for 18/02/23


------------------------ 18/02/23 - 1 -----------------
last 15 dates :  ['18/02/23', '17/02/23', '16/02/23', '15/02/23', '14/02/23', '13/02/23', '12/02/23', '11/02/23', '10/02/23', '09/02/23', '08/02/23', '07/02/23', '06/02/23', '05/02/23', '04/02/23']
[ 18/02/23	18/02/23	]
count : 2 <====> duplicate : 1
result is : True for 18/02/23


------------------------ 18/03/23 - 3 -----------------
last 15 dates :  ['18/03/23', '17/03/23', '16/03/23', '15/03/23', '14/03/23', '13/03/23', '12/03/23', '11/03/23', '10/03/23', '09/03/23', '08/03/23', '07/03/23', '06/03/23', '05/03/23', '04/03/23']
[ 18/03/23	18/03/23	18/03/23	]
count : 3 <====> duplicate : 3
result is : True for 18/03/23


------------------------ 18/03/23 - 2 -----------------
last 15 dates :  ['18/03/23', '17/03/23', '16/03/23', '15/03/23', '14/03/23', '13/03/23', '12/03/23', '11/03/23', '10/03/23', '09/03/23', '08/03/23', '07/03/23', '06/03/23', '05/03/23', '04/03/23']
[ 18/03/23	18/03/23	18/03/23	]
count : 3 <====> duplicate : 2
result is : True for 18/03/23


------------------------ 18/03/23 - 1 -----------------
last 15 dates :  ['18/03/23', '17/03/23', '16/03/23', '15/03/23', '14/03/23', '13/03/23', '12/03/23', '11/03/23', '10/03/23', '09/03/23', '08/03/23', '07/03/23', '06/03/23', '05/03/23', '04/03/23']
[ 18/03/23	18/03/23	18/03/23	]
count : 3 <====> duplicate : 1
result is : True for 18/03/23


------------------------ 01/03/23 - 1 -----------------
last 15 dates :  ['01/03/23', '28/02/23', '27/02/23', '26/02/23', '25/02/23', '24/02/23', '23/02/23', '22/02/23', '21/02/23', '20/02/23', '19/02/23', '18/02/23', '17/02/23', '16/02/23', '15/02/23']
[ 18/02/23	18/02/23	01/03/23	]
count : 3 <====> duplicate : 1
result is : True for 01/03/23
======end======
